…
a. Summarize the data so there is one row for each name/sex combination. Compute both the number of times and proportion of time that name is used within sex.


```r
t<-babynames%>% 
  group_by(name, sex) %>% 
  summarise(n=sum(n),p=sum(prop)) %>% 
  pivot_wider(id_cols=name,names_from = sex, values_from =c(n,p),values_fill = list(n=0,p=0))

t
```

```
## # A tibble: 97,310 x 5
## # Groups:   name [97,310]
##    name        n_M   n_F        p_M        p_F
##    <chr>     <int> <int>      <dbl>      <dbl>
##  1 Aaban       107     0 0.0000525  0         
##  2 Aabha         0    35 0          0.0000180 
##  3 Aabid        10     0 0.00000486 0         
##  4 Aabir         5     0 0.00000248 0         
##  5 Aabriella     0    32 0          0.0000164 
##  6 Aada          0     5 0          0.00000257
##  7 Aadam       254     0 0.000124   0         
##  8 Aadan       130     0 0.0000625  0         
##  9 Aadarsh     199     0 0.0000956  0         
## 10 Aaden      4653     5 0.00223    0.00000247
## # … with 97,300 more rows
```
…
```r
male_female_names_longer0 <- babynames%>% 
  group_by(name, sex) %>% 
  summarise(n=sum(n)) %>% 
  pivot_wider(names_from = sex, values_from = n,values_fill = list(n=0)) %>% 
  mutate(r=pmin(M/F,F/M)) %>% 
  filter(M > 10000, F > 10000) %>% 
  arrange(desc(r)) %>% 
  filter(r>=0.5)

male_female_names_longer0
```

```
## # A tibble: 27 x 4
## # Groups:   name [27]
##    name        M      F     r
##    <chr>   <int>  <int> <dbl>
##  1 Blair   14470  14195 0.981
##  2 Elisha  13330  13599 0.980
##  3 Kerry   49596  48534 0.979
##  4 Kris    13982  13490 0.965
##  5 Robbie  20863  22264 0.937
##  6 Justice 17080  15782 0.924
##  7 Riley   92789 100881 0.920
##  8 Emery   17779  19367 0.918
##  9 Quinn   31230  28283 0.906
## 10 Jackie  78405  90604 0.865
## # … with 17 more rows
```

```r
 male_female_names_longer<-male_female_names_longer0 %>% 
  select(name, M, F) %>% 
  pivot_longer(cols= -name,names_to = "Sex",values_to = "n")%>% 
  inner_join(male_female_names_longer0, by="name") %>%
  select(-c(M,F)) 
 
male_female_names_longer
```

```
## # A tibble: 54 x 4
## # Groups:   name [27]
##    name   Sex       n     r
##    <chr>  <chr> <int> <dbl>
##  1 Blair  M     14470 0.981
##  2 Blair  F     14195 0.981
##  3 Elisha M     13330 0.980
##  4 Elisha F     13599 0.980
##  5 Kerry  M     49596 0.979
##  6 Kerry  F     48534 0.979
##  7 Kris   M     13982 0.965
##  8 Kris   F     13490 0.965
##  9 Robbie M     20863 0.937
## 10 Robbie F     22264 0.937
## # … with 44 more rows
```
…
