…
avr_arr_delay<-flights_no_na %>% 
  mutate(day_of_week=wday(time_hour, label=TRUE)) %>% 
  inner_join(c,by="origin") %>% 
  group_by(name, day_of_week) %>% 
  summarise(avr_delay=mean(arr_delay)) 

avr_arr_delay
```

```
## # A tibble: 21 x 3
## # Groups:   name [3]
##    name                day_of_week avr_delay
##    <chr>               <ord>           <dbl>
##  1 John F Kennedy Intl Sun             6.27 
##  2 John F Kennedy Intl Mon             7.61 
##  3 John F Kennedy Intl Tue             3.28 
##  4 John F Kennedy Intl Wed             5.70 
##  5 John F Kennedy Intl Thu             7.40 
##  6 John F Kennedy Intl Fri             6.42 
##  7 John F Kennedy Intl Sat             1.96 
##  8 La Guardia          Sun             0.207
##  9 La Guardia          Mon             9.53 
## 10 La Guardia          Tue             5.60 
## # … with 11 more rows
```
…
