…
a. How many student enrollments in each department?

```r
Grades <- read_csv("http://www.macalester.edu/~dshuman1/data/112/grades.csv") %>%
  distinct(sid,sessionID,.keep_all = TRUE) 
Courses <- read_csv("http://www.macalester.edu/~dshuman1/data/112/courses.csv")

Courses %>% 
  group_by(dept) %>% 
  summarize(sum(enroll))
```

```
## # A tibble: 40 x 2
##    dept  `sum(enroll)`
##    <chr>         <dbl>
##  1 A                29
##  2 b               385
##  3 B               104
##  4 C              1336
##  5 d              3046
##  6 D              2003
##  7 e               675
##  8 E               119
##  9 F              1587
## 10 g                82
## # … with 30 more rows
```
b. What is the grade-point average (GPA) for each student? The average student GPA? Hint: There are some “S” and “AU” grades that we want to exclude from GPA calculations. What is the correct variant of join to accomplish this?

```r
GPAConversion <- tibble(grade=c("A+","A","A-","B+","B","B-","C+","C","C-","D+","D","D-","NC"),
                        gpa=c(4.3,4,3.7,3.3,3,2.7,2.3,2,1.7,1.3,1,0.7,0))

Grades %>% 
  left_join(GPAConversion, by="grade") %>% 
  filter(grade!="S", grade!="AU") %>%
  group_by(sid) %>% 
  summarize(sum(gpa)/n())
```

```
## # A tibble: 443 x 2
##    sid    `sum(gpa)/n()`
##    <chr>           <dbl>
##  1 S31185           2.41
##  2 S31188           3.02
##  3 S31191           3.21
##  4 S31194           3.36
##  5 S31197           3.35
##  6 S31200           2.2 
##  7 S31203           3.82
##  8 S31206           2.46
##  9 S31209           3.13
## 10 S31212           3.67
## # … with 433 more rows
```
…
d. What is the grade-point average for each instructor?


```r
Grades %>% 
  inner_join(GPAConversion, by="grade") %>% 
  inner_join(Courses, by="sessionID") %>% 
  group_by(iid) %>% 
  summarise(gpa_iid=sum(gpa)/n()) %>% 
  filter(gpa_iid!="NA")
```

```
## # A tibble: 359 x 2
##    iid     gpa_iid
##    <chr>     <dbl>
##  1 inst125    3.42
##  2 inst126    3.51
##  3 inst128    3.16
##  4 inst129    3.57
##  5 inst130    3.7 
##  6 inst132    3.75
##  7 inst133    3.6 
##  8 inst134    3.61
##  9 inst135    2.97
## 10 inst136    3.49
## # … with 349 more rows
```
…
```r
clc<-Courses %>% 
  count(sessionID) %>% 
  filter(n>1) 

Grades %>% 
  inner_join(Courses, by="sessionID") %>%
  anti_join(clc, by="sessionID") %>% 
  inner_join(GPAConversion, by="grade") %>% 
  group_by(dept) %>% 
  summarize(gpa=mean(gpa))
```

```
## # A tibble: 38 x 2
##    dept    gpa
##    <chr> <dbl>
##  1 A      3.5 
##  2 b      3.25
##  3 B      3.2 
##  4 C      3.53
##  5 d      3.31
##  6 D      3.59
##  7 e      3.49
##  8 E      3.64
##  9 F      3.30
## 10 G      3.18
## # … with 28 more rows
```
…
