…
  
course_descriptios <- fall2017 %>% 
  html_nodes("div.expandable p:nth-child(1)") %>%
  html_text() %>% 
  str_sub(start = 30)
```

```r
course_df <- tibble(number=course_nums, name=course_names, day=course_days, time=course_time, room=course_room, instructor=course_instructor, avil_max=course_av, general_education_requirement=course_ger, description=course_descriptios)

course_df
```

```
## # A tibble: 762 x 9
##    number name  day   time  room  instructor avil_max general_educati…
##    <chr>  <chr> <chr> <chr> <chr> <chr>      <chr>    <chr>           
##  1 AMST … Expl… W     07:0… ARTC… Gutierrez… Closed … U.S. Identities…
##  2 AMST … The … MWF   09:4… NEIL… Karin Agu… 0 / 16   U.S. Identities…
##  3 AMST … Crit… MWF   02:2… OLRI… Nathan Ti… 13 / 20  ""              
##  4 AMST … Poli… MWF   09:4… CARN… Lesley La… Closed … U.S. Identities…
##  5 AMST … In M… MWF   01:1… MAIN… Crystal M… 2 / 20   U.S. Identities…
##  6 AMST … Narr… MWF   10:5… MAIN… Crystal M… Closed … ""              
##  7 AMST … Race… MWF   01:1… NEIL… Jonathan … Closed … ""              
##  8 AMST … Race… M     07:0… NEIL… Karin Agu… Closed … U.S. Identities…
##  9 AMST … Afri… MWF   09:4… CARN… Sarah Bel… 10 / 20  U.S. Identities…
## 10 AMST … Publ… TR    09:4… NEIL… Harris, S… 0 / 15   ""              
## # … with 752 more rows, and 1 more variable: description <chr>
```
…
